…
------------------------------------------------------------------------

7.  Make a new tibble with a subset of your data, with variables and
    observations that you are interested in exploring.

``` r
# using our new dataset made above: steam_games_with_release_year
steam_games_genre_by_year <- as_tibble(steam_games_with_release_year %>% select(id, name, genre, release_year))
print(steam_games_genre_by_year)
```

    ## # A tibble: 40,833 × 4
    ##       id name                                       genre                relea…¹
    ##    <dbl> <chr>                                      <chr>                  <dbl>
    ##  1     1 DOOM                                       Action                  2016
    ##  2     2 PLAYERUNKNOWN'S BATTLEGROUNDS              Action,Adventure,Ma…    2017
    ##  3     3 BATTLETECH                                 Action,Adventure,St…    2018
    ##  4     4 DayZ                                       Action,Adventure,Ma…    2018
    ##  5     5 EVE Online                                 Action,Free to Play…    2003
    ##  6     6 Grand Theft Auto V: Premium Online Edition Action,Adventure         NaN
    ##  7     7 Devil May Cry 5                            Action                  2019
    ##  8     8 Human: Fall Flat                           Adventure,Indie         2016
    ##  9     9 They Are Billions                          Strategy,Early Acce…    2017
    ## 10    10 Warhammer: Chaosbane                       Action,Adventure,RPG    2019
    ## # … with 40,823 more rows, and abbreviated variable name ¹​release_year
…
**Summarizing Task**: 2. Compute the number of observations for at least
one of your categorical variables.  
**Graphing Task**: 5. Create a graph out of summarized variables that
has at least two geom layers (***two geom_bar layers & geom_text***).  

``` r
steam_games_genre_by_year <- steam_games_with_release_year[!is.na(steam_games_with_release_year$release_year) & !is.na(steam_games_with_release_year$genre) & steam_games_with_release_year$release_year >= 2015 & steam_games_with_release_year$release_year <= 2019, ] %>% select(id, name, genre, release_year)

steam_games_main_genre <- steam_games_genre_by_year
steam_games_main_genre$main_genre <- word(steam_games_main_genre$genre, sep=",", 1)
print(steam_games_main_genre)
```

    ## # A tibble: 30,991 × 5
    ##       id name                            genre                   relea…¹ main_…²
    ##    <dbl> <chr>                           <chr>                     <dbl> <chr>  
    ##  1     1 DOOM                            Action                     2016 Action 
    ##  2     2 PLAYERUNKNOWN'S BATTLEGROUNDS   Action,Adventure,Massi…    2017 Action 
    ##  3     3 BATTLETECH                      Action,Adventure,Strat…    2018 Action 
    ##  4     4 DayZ                            Action,Adventure,Massi…    2018 Action 
    ##  5     7 Devil May Cry 5                 Action                     2019 Action 
    ##  6     8 Human: Fall Flat                Adventure,Indie            2016 Advent…
    ##  7     9 They Are Billions               Strategy,Early Access      2017 Strate…
    ##  8    10 Warhammer: Chaosbane            Action,Adventure,RPG       2019 Action 
    ##  9    11 For The King                    Adventure,Indie,RPG,St…    2018 Advent…
    ## 10    12 Danganronpa V3: Killing Harmony Adventure                  2017 Advent…
    ## # … with 30,981 more rows, and abbreviated variable names ¹​release_year,
    ## #   ²​main_genre
…
**Summarizing Task**: 2. Compute the number of observations for at least
one of your categorical variables.  
**Graphing Task**: 5. Create a graph out of summarized variables that
has at least two geom layers (***two geom_bar layers & geom_text***).  

``` r
steam_games_language_by_year <- steam_games_with_release_year[!is.na(steam_games_with_release_year$release_year) & !is.na(steam_games_with_release_year$languages) & steam_games_with_release_year$release_year >= 2010 & steam_games_with_release_year$release_year <= 2019, ] %>% select(id, name, languages, release_year)

steam_games_chinese_language_supported <- steam_games_language_by_year %>% mutate(chinese_supported=if_else(grepl("Chinese", languages), "Chinese Language Supported", "Chinese Language Not Supported"))
print(steam_games_chinese_language_supported)
```

    ## # A tibble: 35,617 × 5
    ##       id name                            languages               relea…¹ chine…²
    ##    <dbl> <chr>                           <chr>                     <dbl> <chr>  
    ##  1     1 DOOM                            English,French,Italian…    2016 Chines…
    ##  2     2 PLAYERUNKNOWN'S BATTLEGROUNDS   English,Korean,Simplif…    2017 Chines…
    ##  3     3 BATTLETECH                      English,French,German,…    2018 Chines…
    ##  4     4 DayZ                            English,French,Italian…    2018 Chines…
    ##  5     7 Devil May Cry 5                 English,French,Italian…    2019 Chines…
    ##  6     8 Human: Fall Flat                English,French,German,…    2016 Chines…
    ##  7     9 They Are Billions               English,Spanish - Spai…    2017 Chines…
    ##  8    10 Warhammer: Chaosbane            English,French,Italian…    2019 Chines…
    ##  9    11 For The King                    English,French,Italian…    2018 Chines…
    ## 10    12 Danganronpa V3: Killing Harmony English,French,Japanes…    2017 Chines…
    ## # … with 35,607 more rows, and abbreviated variable names ¹​release_year,
    ## #   ²​chinese_supported
…
